vr_alluvial_wrangling — vr_alluvial_wrangling • visR
…
    LineName <- sample(c('Treatment_A', 'Treatment_B', 'Treatment_C'), 1, prob = c(0.5, 0.3, 0.2))

    patient_data_line <- data.frame(PatientID = PatientID,
                                    LineName = LineName,
                                    LineNumber = LineNumber)

    dataset <- rbind(patient_data_line , dataset)

  }

}

result <- dataset %>% vr_alluvial_wrangling()
result$alluvial_plot_data
#> # A tibble: 25,000 x 3
#>       id linename       linenumber
#>    <int> <chr>               <int>
#>  1     1 Treatment_A 0L          0
#>  2     1 Treatment_B 1L          1
#>  3     1 Other Tx                2
#>  4     1 Other Tx                3
#>  5     1 No Tx 4L                4
#>  6     2 Treatment_B 0L          0
#>  7     2 Treatment_A 1L          1
#>  8     2 Treatment_B 2L          2
#>  9     2 Treatment_A 3L          3
#> 10     2 Other Tx                4
#> # ... with 24,990 more rows
…
