Create Summary Table (also known as Table 1) — vr_create_tableone • visR
…
#>     filter, lag
#> The following objects are masked from 'package:base':
#> 
#>     intersect, setdiff, setequal, union
ovarian %>%
select(-fustat) %>%
  mutate(age_group = factor(case_when(age <= 50 ~ "<= 50 years",
                                      age <= 60 ~ "<= 60 years",
                                      age <= 70 ~ "<= 70 years",
                                      TRUE ~ "> 70 years")),
         rx = factor(rx),
         ecog.ps = factor(ecog.ps)) %>%
  select(age, age_group, everything()) %>%
  vr_create_tableone()
#> # A tibble: 21 x 3
#>    variable  statistic    Overall                   
#>    <chr>     <chr>        <chr>                     
#>  1 Sample    N            26                        
#>  2 age       Mean (SD)    56.2 (10.1)               
#>  3 age       Median (IQR) 56.8466 (50.16712-62.3781)
#>  4 age       Min-max      38.8932-74.5041           
#>  5 age       Missing      0 (0%)                    
#>  6 age_group <= 50 years  6 (23.1%)                 
#>  7 age_group <= 60 years  13 (50.0%)                
#>  8 age_group <= 70 years  4 (15.4%)                 
#>  9 age_group > 70 years   3 (11.5%)                 
#> 10 futime    Mean (SD)    600 (340)                 
#> # ... with 11 more rows
…
